<svg width="25" height="16" viewBox="0 0 25 16" fill="none" xmlns="http://www.w3.org/2000/svg">
<path d="M24.2468 3.29831L23.4609 -2.57656e-08L12.1235 11.8759L0.786192 -7.69123e-07L0.000261115 3.29831L12.1235 16L24.2468 3.29831Z" fill="white"/>
</svg>
